parameter int;
code { DROP;
       PUSH int 1;
       PUSH int 0;
       PUSH int 0;
       PUSH int 0;
       PUSH int 0;
       PUSH int 0;
       PUSH int 0;
       PUSH int 0;
       PUSH int 0;
       PUSH int 0;
       PUSH int 0;
       DIP 10
           { DROP };
       DROP 10;
       UNIT;
       NIL operation;
       PAIR };
storage unit;
