parameter (or :root (int :e1 %left)
                    (option %right (nat :v)));
storage unit;
code { CDR;
       PUSH
         (list :l (option :o (int :o)))
         { Some 3; None; Some -1 };
       DROP;
       PUSH
         (map (int :k) (option :v string))
         { Elt 3 (Some "a"); Elt 4 None };
       DROP;
       PUSH
         (option (lambda int int))
         (Some { PUSH int 3;
                 DROP });
       DROP;
       NIL operation;
       PAIR };
